module github.com/Ramazon1227/position_service

go 1.18

require (
	github.com/dgrijalva/jwt-go v3.2.0+incompatible
	github.com/google/uuid v1.3.0
	github.com/jackc/pgconn v1.13.0
	github.com/jackc/pgx/v4 v4.17.2
	github.com/joho/godotenv v1.4.0
	github.com/opentracing-contrib/go-grpc v0.0.0-20210225150812-73cb765af46e
	github.com/opentracing/opentracing-go v1.2.0
	github.com/spf13/cast v1.5.0
	github.com/uber/jaeger-client-go v2.30.0+incompatible
	go.uber.org/zap v1.24.0
	golang.org/x/crypto v0.4.0
	google.golang.org/grpc v1.51.0
	google.golang.org/protobuf v1.28.1
)

require (
	github.com/HdrHistogram/hdrhistogram-go v1.1.2 // indirect
	github.com/golang/protobuf v1.5.2 // indirect
	github.com/jackc/chunkreader/v2 v2.0.1 // indirect
	github.com/jackc/pgio v1.0.0 // indirect
	github.com/jackc/pgpassfile v1.0.0 // indirect
	github.com/jackc/pgproto3/v2 v2.3.1 // indirect
	github.com/jackc/pgservicefile v0.0.0-20200714003250-2b9c44734f2b // indirect
	github.com/jackc/pgtype v1.12.0 // indirect
	github.com/jackc/puddle v1.3.0 // indirect
	github.com/pkg/errors v0.8.1 // indirect
	github.com/uber/jaeger-lib v2.4.1+incompatible // indirect
	go.uber.org/atomic v1.7.0 // indirect
	go.uber.org/multierr v1.6.0 // indirect
	golang.org/x/net v0.3.0 // indirect
	golang.org/x/sys v0.3.0 // indirect
	golang.org/x/text v0.5.0 // indirect
	google.golang.org/genproto v0.0.0-20200526211855-cb27e3aa2013 // indirect
)
